{
  "name": "YTHttp",
  "version": "1.0.0",
  "summary": "some common components.",
  "description": "some common components.",
  "swift_versions": [
    "5.0"
  ],
  "platforms": {
    "ios": "9.0"
  },
  "homepage": "http://172.16.1.139/smarthome/ythomesdk-ios",
  "license": {
    "type": "MIT",
    "file": "LICENSE"
  },
  "authors": {
    "Hubin_Huang": "Hubin_Huang@wingto.com"
  },
  "source": {
    "git": "http://172.16.1.139/smarthome/ythomesdk-ios.git",
    "tag": "1.0.0"
  },
  "source_files": "YTHttp/**/*.{h,m,swift}",
  "requires_arc": true,
  "dependencies": {
    "Moya": [

    ],
    "PromiseKit": [

    ]
  },
  "swift_version": "5.0"
}
