{
  "name": "FreestarAds",
  "version": "3.7.0-beta-7",
  "authors": "Freestar",
  "license": {
    "type": "Apache2.0",
    "file": "LICENCE.md"
  },
  "homepage": "http://www.freestar.com",
  "summary": "Freestar Ads Mediation system",
  "platforms": {
    "ios": "9.0"
  },
  "public_header_files": "SDK/FreestarAds.framework/**/*.h",
  "source_files": "SDK/FreestarAds.framework/**/*.h",
  "vendored_frameworks": [
    "SDK/FreestarAds.framework",
    "SDK/FreestarAdsCore.framework"
  ],
  "resources": "SDK/Assets/*.xib",
  "source": {
    "git": "https://gitlab.com/freestar/freestar-ios-binaries.git",
    "tag": "release_v3.7.0-beta-7"
  },
  "user_target_xcconfig": {
    "EXCLUDED_ARCHS[sdk=iphonesimulator*]": "arm64"
  },
  "pod_target_xcconfig": {
    "EXCLUDED_ARCHS[sdk=iphonesimulator*]": "arm64"
  }
}
